Available Datasets • STATcubeR
…
Since some of the metadata contained in the OGD JSON files is only
available in German, the following overview uses German labels. Click on
the individual table cells to get more information.

CLI usage

To get a simplified version of this summary, use the
od_list() function. It uses webscraping techniques to get
dataset ids and German labels based on the contents of https://data.statistik.gv.at/web/catalog.jsp.

all_datasets <- od_list()
all_datasets

# A tibble: 373 × 3
   category      id                              label                          
   <chr>         <chr>                           <chr>                          
 1 Neueste Daten OGD_prodvindexusb2021_KJID2021… Produktivitätsindex je unselbs…
 2 Neueste Daten OGD_prodindexstd2021_KJID2021_… Produktivitätsindex je geleist…
 3 Neueste Daten OGD_bewwohn303_BB303_1          Baubewilligungen, Wohnungen ab…
 4 Neueste Daten OGD_kjiprodindex2021_KJID2021_… Produktionsindex Nace Rev.2 (B…
 5 Neueste Daten OGD_bauvh302_BB302_1            Baubewilligungen, Neuerrichtun…
 6 Neueste Daten OGD_kjiumsatzindex2021_KJID202… Umsatzindex Nace Rev.2 (Basis …
 7 Neueste Daten OGD_bruttoverdiensteindex2021a… Bruttoverdiensteindex (Basis 2…
 8 Neueste Daten OGD_beschaeftigtenindex2021_KJ… Index der Beschäftigten insges…
 9 Neueste Daten OGD_kjiarbeitsvolindex2021_KJI… Arbeitsvolumensindex (Basis 20…
10 Neueste Daten OGD_kjiauftragseingangsindex20… Auftragseingangsindex Nace Rev…
# ℹ 363 more rows
…
